{
  "type": "service_account",
  "project_id": "stomp-c5094",
  "private_key_id": "62613fdc53e0a1c19b15b756851f7cf7a31f69d1",
  "private_key": "-----BEGIN PRIVATE KEY-----\nMIIEvgIBADANBgkqhkiG9w0BAQEFAASCBKgwggSkAgEAAoIBAQCMOSUfZgyP4Z9g\nj/FmcZLtYIPOxIA7IH+kF28tHdH4Lv98NGMEykNXsd9g1VZeV18tApS/SHWyhkKQ\nI01iTD+WV3JrQd6wvaBxRUwlpB4xgYWsUOAhZClieG541Hix8v7T80VfMnA6A2+3\n/Z3w4WmMxfKbqtH4ks5OqAkevgKQA+thCqbJSeIZnElE6+FmZVUTNZxAUmZ9Q2pE\n0SyCbcqdpjuq/CwrPUka5eIsaQlD74yzcnJ/oUjcc1HQpF6Xb2OCQPzIUbelyfr2\nGU0oQxHsAekyL217wxgwMpz2dUTfRvxljaFYxQVdC9TPRa0e8VvCSkoNABFTxMYK\nl+/HmbjdAgMBAAECggEAALsNf/fiqd9FmtW1LtD5sIX3udyZRHWbZKoAmM4WeYIZ\nL7cAKxa4uhzBqroB3LT82Hmyd7qzbk43y5N7hD8cd7aV8Iwj0mzyiJSRXILZ620e\n2rKDMHlao9o3zSZiSJ8ZB9a1LlVPc2XwL5fBOm+aQrMHXBtMQ8zUCWHjxka8Ma7p\nkf1RfpynMIsWrVbqTGX1I1ZKGyftWSKhMYY94dkk0Tbpxh/13XzhpjUXkOnoGmqv\nc2yfYsK8la4QWNZsgr8rHyp5SIGi83m1UU72gqGbOTGwmTbZr8LZZ2Y0dXzF7ZbQ\nYOPXhQ+3yRfU9woBEDGOE54SqINxTBMpPPG3bGt8GwKBgQDBULOXACYdBor8lkKY\n6Jcco2Hy17J4TIf6f9SEBt1il9DRz9J9/Uc6aNmfBeWAFNXUet0ARX9X+No0D/Zt\nH/WrK5KXAG9xLWyGHVSQHQqlK7oHY+z6JrDa2mzKuxCLf49gTu9fsa4GIaB6vUHu\nQcIhK51MoiiSi7yhZi+N5+Ej6wKBgQC5sThWraraSrTt6FBZH4jaIwstYppOGMKv\nv2nMxcIiCcitq2Ko+I1hdqVbgl1KuNEatzeCboPiVW5d65SRwq3rECTgvFMgh5z0\npZVFyApuZmPGJCGKfMZnINeLP1erO+2bj4TWJxlcVBG6HsgSrL6UyknU31WTYhzl\n+AanfNaMVwKBgQC6SHsWynTvyWtLZbx9PrzHQwXTDlmTpSPvlxkBtN/G70axuBM9\nh0EJHxp+LB9woiM/4rluVooVCt+yBaPQmliQ/qb+zdOV+1C1mDPxv5qPeaiFEJy+\nnWQVMSBe545U7rIJ+2aeD0kD7YmIXTHYVxOsBSxKOYThWriFy0ON+mGwywKBgDen\nT9Vas4w9O8DaEcrEUsXeHul5Vfn2HdOCsPj4hFijSgwTA7zU0brWTnUAu2k7vyAc\nrXxgFxLsu+lWQ+7zxCBhdEwO5XMocfg48GY7sDSqZ1jpV0wkXWpnQ3Kuh14A1hP7\njbqJeWZco/t+YkSGlZAOmNY+IW3MyBB8p7HnDn59AoGBAMEPSHBBZ3bKJI7d8LsN\nhr6xB4FFwXLV7kMDOB5pzFK0j/J4uuAHLl822RsBG0PbfM2IYBrOVPYlOk3MxaVV\nEo12ZMW/8osGCk3q7ss7hht4kMYAMWfOpKN3Qgo3MTr8uzX/X59uZa5yw3K068rn\n9BXS+fGLIEL7lX73H67M8SPw\n-----END PRIVATE KEY-----\n",
  "client_email": "firebase-adminsdk-2m81u@stomp-c5094.iam.gserviceaccount.com",
  "client_id": "100897833244798287310",
  "auth_uri": "https://accounts.google.com/o/oauth2/auth",
  "token_uri": "https://oauth2.googleapis.com/token",
  "auth_provider_x509_cert_url": "https://www.googleapis.com/oauth2/v1/certs",
  "client_x509_cert_url": "https://www.googleapis.com/robot/v1/metadata/x509/firebase-adminsdk-2m81u%40stomp-c5094.iam.gserviceaccount.com"
}
